simulation/qsim/quartus.msim.vcd
$comment
	File created using the following command:
		vcd file quartus.msim.vcd -direction
$end
$date
	Tue Nov 12 16:00:50 2024
$end
$version
	ModelSim Version 10.1d
$end
$timescale
	1ps
$end
$scope module Top_vlg_vec_tst $end
$var reg 1 ! clk $end
$var reg 8 " Data_in [7:0] $end
$var reg 1 # start $end
$var wire 1 $ done $end
$var wire 1 % Q0 [7] $end
$var wire 1 & Q0 [6] $end
$var wire 1 ' Q0 [5] $end
$var wire 1 ( Q0 [4] $end
$var wire 1 ) Q0 [3] $end
$var wire 1 * Q0 [2] $end
$var wire 1 + Q0 [1] $end
$var wire 1 , Q0 [0] $end
$var wire 1 - Q1 [7] $end
$var wire 1 . Q1 [6] $end
$var wire 1 / Q1 [5] $end
$var wire 1 0 Q1 [4] $end
$var wire 1 1 Q1 [3] $end
$var wire 1 2 Q1 [2] $end
$var wire 1 3 Q1 [1] $end
$var wire 1 4 Q1 [0] $end
$var wire 1 5 Q2 [7] $end
$var wire 1 6 Q2 [6] $end
$var wire 1 7 Q2 [5] $end
$var wire 1 8 Q2 [4] $end
$var wire 1 9 Q2 [3] $end
$var wire 1 : Q2 [2] $end
$var wire 1 ; Q2 [1] $end
$var wire 1 < Q2 [0] $end
$var wire 1 = Q3 [7] $end
$var wire 1 > Q3 [6] $end
$var wire 1 ? Q3 [5] $end
$var wire 1 @ Q3 [4] $end
$var wire 1 A Q3 [3] $end
$var wire 1 B Q3 [2] $end
$var wire 1 C Q3 [1] $end
$var wire 1 D Q3 [0] $end
$var wire 1 E Q4 [7] $end
$var wire 1 F Q4 [6] $end
$var wire 1 G Q4 [5] $end
$var wire 1 H Q4 [4] $end
$var wire 1 I Q4 [3] $end
$var wire 1 J Q4 [2] $end
$var wire 1 K Q4 [1] $end
$var wire 1 L Q4 [0] $end
$var wire 1 M sampler $end
$scope module i1 $end
$var wire 1 N gnd $end
$var wire 1 O vcc $end
$var wire 1 P unknown $end
$var tri1 1 Q devclrn $end
$var tri1 1 R devpor $end
$var tri1 1 S devoe $end
$var wire 1 T done~output_o $end
$var wire 1 U Q0[7]~output_o $end
$var wire 1 V Q0[6]~output_o $end
$var wire 1 W Q0[5]~output_o $end
$var wire 1 X Q0[4]~output_o $end
$var wire 1 Y Q0[3]~output_o $end
$var wire 1 Z Q0[2]~output_o $end
$var wire 1 [ Q0[1]~output_o $end
$var wire 1 \ Q0[0]~output_o $end
$var wire 1 ] Q1[7]~output_o $end
$var wire 1 ^ Q1[6]~output_o $end
$var wire 1 _ Q1[5]~output_o $end
$var wire 1 ` Q1[4]~output_o $end
$var wire 1 a Q1[3]~output_o $end
$var wire 1 b Q1[2]~output_o $end
$var wire 1 c Q1[1]~output_o $end
$var wire 1 d Q1[0]~output_o $end
$var wire 1 e Q2[7]~output_o $end
$var wire 1 f Q2[6]~output_o $end
$var wire 1 g Q2[5]~output_o $end
$var wire 1 h Q2[4]~output_o $end
$var wire 1 i Q2[3]~output_o $end
$var wire 1 j Q2[2]~output_o $end
$var wire 1 k Q2[1]~output_o $end
$var wire 1 l Q2[0]~output_o $end
$var wire 1 m Q3[7]~output_o $end
$var wire 1 n Q3[6]~output_o $end
$var wire 1 o Q3[5]~output_o $end
$var wire 1 p Q3[4]~output_o $end
$var wire 1 q Q3[3]~output_o $end
$var wire 1 r Q3[2]~output_o $end
$var wire 1 s Q3[1]~output_o $end
$var wire 1 t Q3[0]~output_o $end
$var wire 1 u Q4[7]~output_o $end
$var wire 1 v Q4[6]~output_o $end
$var wire 1 w Q4[5]~output_o $end
$var wire 1 x Q4[4]~output_o $end
$var wire 1 y Q4[3]~output_o $end
$var wire 1 z Q4[2]~output_o $end
$var wire 1 { Q4[1]~output_o $end
$var wire 1 | Q4[0]~output_o $end
$var wire 1 } clk~input_o $end
$var wire 1 ~ inst|inst|inst13~combout $end
$var wire 1 !! inst|inst|inst16~combout $end
$var wire 1 "! inst|inst|inst1~q $end
$var wire 1 #! inst|inst|inst24~0_combout $end
$var wire 1 $! inst|inst|inst2~q $end
$var wire 1 %! start~input_o $end
$var wire 1 &! inst|inst|inst23~0_combout $end
$var wire 1 '! inst|inst|inst4~q $end
$var wire 1 (! inst|inst|inst17~combout $end
$var wire 1 )! inst|inst|inst3~q $end
$var wire 1 *! inst|inst1|inst19~combout $end
$var wire 1 +! inst2|inst5|inst~0_combout $end
$var wire 1 ,! inst2|inst5|inst~q $end
$var wire 1 -! inst2|inst5|inst23~0_combout $end
$var wire 1 .! inst2|inst5|inst4~q $end
$var wire 1 /! inst2|inst5|inst1~0_combout $end
$var wire 1 0! inst2|inst5|inst1~q $end
$var wire 1 1! inst2|inst5|inst22~combout $end
$var wire 1 2! inst2|inst5|inst3~q $end
$var wire 1 3! inst2|inst5|inst24~combout $end
$var wire 1 4! Data_in[7]~input_o $end
$var wire 1 5! inst|inst1|inst3~0_combout $end
$var wire 1 6! inst2|inst|inst1|inst8~0_combout $end
$var wire 1 7! inst2|inst|inst1|inst8~q $end
$var wire 1 8! inst2|inst6|inst3~0_combout $end
$var wire 1 9! inst2|inst|inst6~combout $end
$var wire 1 :! inst2|inst|inst2|inst8~q $end
$var wire 1 ;! inst2|inst|inst3|inst8~q $end
$var wire 1 <! Data_in[0]~input_o $end
$var wire 1 =! inst2|inst20|inst3[0]~7_combout $end
$var wire 1 >! inst2|inst4|inst3[0]~0_combout $end
$var wire 1 ?! inst2|inst|inst2|inst7~q $end
$var wire 1 @! inst2|inst|inst3|inst7~q $end
$var wire 1 A! Data_in[1]~input_o $end
$var wire 1 B! inst2|inst20|inst3[1]~6_combout $end
$var wire 1 C! inst2|inst|inst3|inst~q $end
$var wire 1 D! inst2|inst1|inst1|inst12~4_combout $end
$var wire 1 E! inst|inst1|inst10~0_combout $end
$var wire 1 F! inst|inst1|inst7~combout $end
$var wire 1 G! inst2|inst8|inst|inst2~0_combout $end
$var wire 1 H! inst2|inst|inst2|inst1~q $end
$var wire 1 I! Data_in[6]~input_o $end
$var wire 1 J! inst2|inst20|inst3[6]~1_combout $end
$var wire 1 K! inst2|inst2|inst11|inst1~q $end
$var wire 1 L! inst2|inst1|inst2|inst|inst5~combout $end
$var wire 1 M! inst2|inst2|inst23~5_combout $end
$var wire 1 N! inst2|inst2|inst23~9_combout $end
$var wire 1 O! inst2|inst2|inst13|inst1~q $end
$var wire 1 P! inst2|inst3|inst3[6]~8_combout $end
$var wire 1 Q! inst2|inst2|inst|inst1~q $end
$var wire 1 R! inst2|inst2|inst23~6_combout $end
$var wire 1 S! inst2|inst2|inst12|inst1~q $end
$var wire 1 T! inst2|inst2|inst23~7_combout $end
$var wire 1 U! inst2|inst2|inst17|inst1~q $end
$var wire 1 V! inst2|inst3|inst3[6]~9_combout $end
$var wire 1 W! inst2|inst2|inst23~2_combout $end
$var wire 1 X! inst2|inst2|inst14|inst1~q $end
$var wire 1 Y! inst2|inst2|inst15|inst1~q $end
$var wire 1 Z! inst2|inst2|inst23~8_combout $end
$var wire 1 [! inst2|inst2|inst16|inst1~q $end
$var wire 1 \! inst2|inst3|inst3[6]~10_combout $end
$var wire 1 ]! inst2|inst8|inst|inst1~combout $end
$var wire 1 ^! inst2|inst|inst3|inst1~q $end
$var wire 1 _! inst2|inst|inst4~combout $end
$var wire 1 `! inst2|inst|inst|inst1~q $end
$var wire 1 a! inst2|inst|inst20|inst8[6]~4_combout $end
$var wire 1 b! inst2|inst1|inst1|inst12~5_combout $end
$var wire 1 c! inst2|inst|inst2|inst6~q $end
$var wire 1 d! inst2|inst|inst3|inst6~q $end
$var wire 1 e! Data_in[2]~input_o $end
$var wire 1 f! inst2|inst20|inst3[2]~5_combout $end
$var wire 1 g! inst2|inst2|inst15|inst6~q $end
$var wire 1 h! inst2|inst2|inst17|inst6~q $end
$var wire 1 i! inst2|inst3|inst3[2]~4_combout $end
$var wire 1 j! inst2|inst2|inst14|inst6~q $end
$var wire 1 k! inst2|inst2|inst16|inst6~q $end
$var wire 1 l! inst2|inst3|inst3[2]~5_combout $end
$var wire 1 m! inst2|inst2|inst|inst6~q $end
$var wire 1 n! inst2|inst2|inst12|inst6~q $end
$var wire 1 o! inst2|inst3|inst3[2]~6_combout $end
$var wire 1 p! inst2|inst2|inst11|inst6~q $end
$var wire 1 q! inst2|inst2|inst13|inst6~q $end
$var wire 1 r! inst2|inst3|inst3[2]~7_combout $end
$var wire 1 s! inst2|inst8|inst|inst5~combout $end
$var wire 1 t! inst2|inst|inst|inst6~q $end
$var wire 1 u! inst2|inst|inst20|inst8[2]~2_combout $end
$var wire 1 v! inst2|inst4|inst3[2]~2_combout $end
$var wire 1 w! inst2|inst1|inst1|inst5|inst4~0_combout $end
$var wire 1 x! inst2|inst|inst2|inst2~q $end
$var wire 1 y! Data_in[5]~input_o $end
$var wire 1 z! inst2|inst20|inst3[5]~2_combout $end
$var wire 1 {! inst2|inst2|inst11|inst2~q $end
$var wire 1 |! inst2|inst2|inst13|inst2~q $end
$var wire 1 }! inst2|inst3|inst3[5]~11_combout $end
$var wire 1 ~! inst2|inst2|inst|inst2~q $end
$var wire 1 !" inst2|inst2|inst12|inst2~q $end
$var wire 1 "" inst2|inst2|inst17|inst2~q $end
$var wire 1 #" inst2|inst3|inst3[5]~12_combout $end
$var wire 1 $" inst2|inst2|inst14|inst2~q $end
$var wire 1 %" inst2|inst2|inst15|inst2~q $end
$var wire 1 &" inst2|inst2|inst16|inst2~q $end
$var wire 1 '" inst2|inst3|inst3[5]~13_combout $end
$var wire 1 (" inst2|inst8|inst|inst2~combout $end
$var wire 1 )" inst2|inst|inst3|inst2~q $end
$var wire 1 *" inst2|inst4|inst|inst2~combout $end
$var wire 1 +" inst2|inst|inst|inst2~q $end
$var wire 1 ," inst2|inst|inst20|inst8[5]~5_combout $end
$var wire 1 -" inst2|inst|inst2|inst3~q $end
$var wire 1 ." Data_in[4]~input_o $end
$var wire 1 /" inst2|inst20|inst3[4]~3_combout $end
$var wire 1 0" inst2|inst2|inst11|inst3~q $end
$var wire 1 1" inst2|inst2|inst13|inst3~q $end
$var wire 1 2" inst2|inst3|inst3[4]~14_combout $end
$var wire 1 3" inst2|inst2|inst|inst3~q $end
$var wire 1 4" inst2|inst2|inst12|inst3~q $end
$var wire 1 5" inst2|inst2|inst17|inst3~q $end
$var wire 1 6" inst2|inst3|inst3[4]~15_combout $end
$var wire 1 7" inst2|inst2|inst14|inst3~q $end
$var wire 1 8" inst2|inst2|inst15|inst3~q $end
$var wire 1 9" inst2|inst2|inst16|inst3~q $end
$var wire 1 :" inst2|inst3|inst3[4]~16_combout $end
$var wire 1 ;" inst2|inst8|inst|inst3~combout $end
$var wire 1 <" inst2|inst|inst3|inst3~q $end
$var wire 1 =" inst2|inst4|inst|inst3~combout $end
$var wire 1 >" inst2|inst|inst|inst3~q $end
$var wire 1 ?" inst2|inst|inst20|inst8[4]~6_combout $end
$var wire 1 @" inst2|inst|inst2|inst4~q $end
$var wire 1 A" Data_in[3]~input_o $end
$var wire 1 B" inst2|inst20|inst3[3]~4_combout $end
$var wire 1 C" inst2|inst2|inst11|inst4~q $end
$var wire 1 D" inst2|inst2|inst13|inst4~q $end
$var wire 1 E" inst2|inst3|inst3[3]~17_combout $end
$var wire 1 F" inst2|inst2|inst|inst4~q $end
$var wire 1 G" inst2|inst2|inst12|inst4~q $end
$var wire 1 H" inst2|inst2|inst17|inst4~q $end
$var wire 1 I" inst2|inst3|inst3[3]~18_combout $end
$var wire 1 J" inst2|inst2|inst14|inst4~q $end
$var wire 1 K" inst2|inst2|inst15|inst4~q $end
$var wire 1 L" inst2|inst2|inst16|inst4~q $end
$var wire 1 M" inst2|inst3|inst3[3]~19_combout $end
$var wire 1 N" inst2|inst8|inst|inst4~combout $end
$var wire 1 O" inst2|inst|inst3|inst4~q $end
$var wire 1 P" inst2|inst4|inst|inst4~combout $end
$var wire 1 Q" inst2|inst|inst|inst4~q $end
$var wire 1 R" inst2|inst|inst20|inst8[3]~7_combout $end
$var wire 1 S" inst2|inst1|inst1|inst12~0_combout $end
$var wire 1 T" inst2|inst4|inst3[1]~1_combout $end
$var wire 1 U" inst2|inst1|inst1|inst12~1_combout $end
$var wire 1 V" inst2|inst1|inst1|inst12~2_combout $end
$var wire 1 W" inst2|inst1|inst1|inst12~3_combout $end
$var wire 1 X" inst2|inst|inst|inst~q $end
$var wire 1 Y" inst2|inst|inst20|inst8[7]~3_combout $end
$var wire 1 Z" inst2|inst1|inst2|inst3[0]~0_combout $end
$var wire 1 [" inst2|inst2|inst23~3_combout $end
$var wire 1 \" inst2|inst2|inst11|inst7~q $end
$var wire 1 ]" inst2|inst2|inst13|inst7~q $end
$var wire 1 ^" inst2|inst8|inst3[1]~6_combout $end
$var wire 1 _" inst2|inst8|inst3[1]~4_combout $end
$var wire 1 `" inst2|inst2|inst15|inst7~q $end
$var wire 1 a" inst2|inst8|inst3[0]~0_combout $end
$var wire 1 b" inst2|inst2|inst17|inst7~q $end
$var wire 1 c" inst2|inst8|inst3[1]~2_combout $end
$var wire 1 d" inst2|inst2|inst14|inst7~q $end
$var wire 1 e" inst2|inst2|inst16|inst7~q $end
$var wire 1 f" inst2|inst8|inst3[1]~3_combout $end
$var wire 1 g" inst2|inst2|inst|inst7~q $end
$var wire 1 h" inst2|inst2|inst12|inst7~q $end
$var wire 1 i" inst2|inst8|inst3[1]~5_combout $end
$var wire 1 j" inst2|inst8|inst3[1]~7_combout $end
$var wire 1 k" inst2|inst|inst|inst7~q $end
$var wire 1 l" inst2|inst|inst20|inst8[1]~1_combout $end
$var wire 1 m" inst2|inst1|inst2|inst|inst6~combout $end
$var wire 1 n" inst2|inst2|inst23~1_combout $end
$var wire 1 o" inst2|inst2|inst|inst8~q $end
$var wire 1 p" inst2|inst2|inst14|inst8~q $end
$var wire 1 q" inst2|inst2|inst11|inst8~q $end
$var wire 1 r" inst2|inst2|inst15|inst8~q $end
$var wire 1 s" inst2|inst2|inst12|inst8~q $end
$var wire 1 t" inst2|inst2|inst13|inst8~q $end
$var wire 1 u" inst2|inst2|inst17|inst8~q $end
$var wire 1 v" inst2|inst2|inst16|inst8~q $end
$var wire 1 w" inst2|inst1|inst1|inst12~6_combout $end
$var wire 1 x" inst2|inst8|inst3[0]~1_combout $end
$var wire 1 y" inst2|inst|inst|inst8~q $end
$var wire 1 z" inst2|inst|inst20|inst8[0]~0_combout $end
$var wire 1 {" inst2|inst1|inst|inst2|inst4~combout $end
$var wire 1 |" inst2|inst2|inst23~0_combout $end
$var wire 1 }" inst2|inst2|inst23~4_combout $end
$var wire 1 ~" inst2|inst2|inst15|inst~q $end
$var wire 1 !# inst2|inst2|inst17|inst~q $end
$var wire 1 "# inst2|inst3|inst3[7]~0_combout $end
$var wire 1 ## inst2|inst2|inst14|inst~q $end
$var wire 1 $# inst2|inst2|inst16|inst~q $end
$var wire 1 %# inst2|inst3|inst3[7]~1_combout $end
$var wire 1 &# inst2|inst2|inst12|inst~q $end
$var wire 1 '# inst2|inst3|inst3[7]~2_combout $end
$var wire 1 (# inst2|inst2|inst11|inst~q $end
$var wire 1 )# inst2|inst2|inst13|inst~q $end
$var wire 1 *# inst2|inst3|inst3[7]~3_combout $end
$var wire 1 +# inst2|inst8|inst|inst~combout $end
$var wire 1 ,# inst2|inst|inst2|inst~q $end
$var wire 1 -# inst2|inst20|inst3[7]~0_combout $end
$var wire 1 .# inst2|inst2|inst|inst~q $end
$var wire 1 /# inst2|inst2|inst19|inst|inst8 [7] $end
$var wire 1 0# inst2|inst2|inst19|inst|inst8 [6] $end
$var wire 1 1# inst2|inst2|inst19|inst|inst8 [5] $end
$var wire 1 2# inst2|inst2|inst19|inst|inst8 [4] $end
$var wire 1 3# inst2|inst2|inst19|inst|inst8 [3] $end
$var wire 1 4# inst2|inst2|inst19|inst|inst8 [2] $end
$var wire 1 5# inst2|inst2|inst19|inst|inst8 [1] $end
$var wire 1 6# inst2|inst2|inst19|inst|inst8 [0] $end
$var wire 1 7# inst2|inst2|inst19|inst2|inst8 [7] $end
$var wire 1 8# inst2|inst2|inst19|inst2|inst8 [6] $end
$var wire 1 9# inst2|inst2|inst19|inst2|inst8 [5] $end
$var wire 1 :# inst2|inst2|inst19|inst2|inst8 [4] $end
$var wire 1 ;# inst2|inst2|inst19|inst2|inst8 [3] $end
$var wire 1 <# inst2|inst2|inst19|inst2|inst8 [2] $end
$var wire 1 =# inst2|inst2|inst19|inst2|inst8 [1] $end
$var wire 1 ># inst2|inst2|inst19|inst2|inst8 [0] $end
$upscope $end
$upscope $end
$enddefinitions $end
#0
$dumpvars
0!
b0 "
0#
0D!
0E!
0F!
1G!
0H!
0I!
0J!
0K!
0L!
0M!
0N!
0O!
0P!
0Q!
0R!
0S!
0T!
0U!
0V!
0W!
0X!
0Y!
0Z!
0[!
0\!
0]!
0^!
0_!
0`!
0a!
0b!
0c!
0d!
0e!
0f!
0g!
0h!
0i!
0j!
0k!
0l!
0m!
0n!
0o!
0p!
0q!
0r!
0s!
0t!
0u!
0v!
0w!
0x!
0y!
0z!
0{!
0|!
0}!
0~!
0!"
0""
0#"
0$"
0%"
0&"
0'"
0("
0)"
0*"
0+"
0,"
0-"
0."
0/"
00"
01"
02"
03"
04"
05"
06"
07"
08"
09"
0:"
0;"
0<"
0="
0>"
0?"
0@"
0A"
0B"
0C"
0D"
0E"
0F"
0G"
0H"
0I"
0J"
0K"
0L"
0M"
0N"
0O"
0P"
0Q"
0R"
1S"
0T"
0U"
0V"
0W"
0X"
0Y"
0Z"
0["
0\"
0]"
0^"
0_"
0`"
0a"
0b"
0c"
0d"
0e"
0f"
0g"
0h"
0i"
0j"
0k"
0l"
0m"
1n"
0o"
0p"
0q"
0r"
0s"
0t"
0u"
0v"
1w"
0x"
0y"
0z"
0{"
1|"
0}"
0~"
0!#
0"#
0##
0$#
0%#
0&#
0'#
0(#
0)#
0*#
0+#
0,#
0-#
0.#
06#
z5#
z4#
z3#
z2#
z1#
z0#
z/#
0>#
z=#
z<#
z;#
z:#
z9#
z8#
z7#
0$
0,
0+
0*
0)
0(
0'
0&
0%
04
03
02
01
00
0/
0.
0-
0<
0;
0:
09
08
07
06
05
0D
0C
0B
0A
0@
0?
0>
0=
0L
0K
0J
0I
0H
0G
0F
0E
xM
0N
1O
xP
1Q
1R
1S
0T
0U
0V
0W
0X
0Y
0Z
0[
0\
0]
0^
0_
0`
0a
0b
0c
0d
0e
0f
0g
0h
0i
0j
0k
0l
0m
0n
0o
0p
0q
0r
0s
0t
0u
0v
0w
0x
0y
0z
0{
0|
0}
0~
0!!
0"!
0#!
0$!
0%!
0&!
0'!
0(!
0)!
0*!
0+!
0,!
1-!
0.!
0/!
00!
01!
02!
03!
04!
15!
06!
07!
08!
09!
0:!
0;!
0<!
0=!
0>!
0?!
0@!
0A!
0B!
0C!
$end
#20000
1!
b1000000 "
b1001000 "
1#
1}
1A"
1I!
1%!
0M
1B"
1J!
1&!
#40000
0!
0}
1M
#60000
b11001000 "
b11011000 "
b11011100 "
b11011110 "
b10011110 "
0#
1!
1A!
1e!
1."
0I!
14!
0%!
1}
0M
1B!
1f!
1/"
0J!
1-#
0&!
1'!
1F"
1Q!
1#!
1(!
18!
1>!
1I"
1V!
1Y
1V
1)
1&
1U"
1Z"
1N"
1]!
1W"
0V!
1W!
0I"
0n"
0w"
0]!
0N"
#80000
0!
0}
1M
#100000
b10010110 "
b10110 "
1!
0A"
04!
1}
0M
0B"
0-#
1)!
0'!
1##
1d"
1J"
17"
1j!
1&!
0>!
1T"
0#!
08!
1%#
1f"
1M"
1:"
1l!
1]
1c
1a
1`
1b
1-
13
11
10
12
0Z"
1m"
1+#
1j"
1N"
1;"
1s!
0W!
0l!
0:"
0M"
1["
0j"
0%#
0s!
0;"
0N"
0+#
#120000
0!
0}
1M
#140000
b110110 "
b110111 "
b110011 "
b110001 "
b1110001 "
b1111001 "
b11111001 "
1!
1<!
0A!
0e!
1A"
1y!
1I!
14!
1}
0M
1=!
0B!
0f!
1B"
1z!
1J!
1-#
1'!
1\"
10"
1p!
1#!
0&!
0(!
18!
1>!
1^"
12"
1r!
1k
1h
1j
1;
18
1:
1Z"
1j"
1;"
1s!
0r!
02"
0["
0j"
1}"
0s!
0;"
#160000
0!
0}
1M
#180000
b11101001 "
b11001001 "
b11001101 "
b11001111 "
b10001111 "
1!
1A!
1e!
0."
0y!
0I!
1}
0M
1B!
1f!
0/"
0z!
0J!
0)!
0'!
1$!
1~"
1r"
1K"
18"
1%"
1Y!
1&!
0>!
1v!
0T"
08!
1"#
16#
1M"
1:"
1'"
1\!
1m
1t
1q
1p
1o
1n
1=
1D
1A
1@
1?
1>
0U"
0Z"
0m"
1{"
1+#
1x"
1N"
1;"
1("
1]!
1V!
0\!
0'"
0:"
1I"
0M"
1n"
06#
0}"
0"#
1L!
1M!
0^"
1a"
0|"
0("
0;"
0x"
0+#
0V!
0I"
1R!
0f"
0n"
0]!
0N"
#200000
0!
0}
1M
#220000
b10001110 "
b10000110 "
b110 "
b10 "
b0 "
1!
0<!
0A!
0e!
0A"
04!
1}
0M
0=!
0B!
0f!
0B"
0-#
1'!
1&#
1s"
1h"
1G"
1n!
0#!
0&!
1(!
1*!
05!
18!
1E!
0M!
1_!
0v!
1'#
1>#
1i"
1I"
1o!
1u
1|
1{
1y
1z
1E
1L
1K
1I
1J
0G!
0a"
0i"
0R!
0W"
0{"
1+#
1x"
1j"
1N"
1s!
0s!
0N"
0x"
0+#
0j"
1w"
0L!
1V!
0o!
0'#
#240000
0!
0}
1M
#260000
1!
1}
0M
1.!
1)!
0'!
0-!
11!
1x"
1&!
0*!
19!
0E!
0_!
1#!
08!
1G!
1^"
1]!
1N"
1f"
0x"
#280000
0!
0}
1M
#300000
1!
1}
0M
1@"
1H!
1'!
1~
0#!
0&!
0(!
18!
09!
1>!
1!!
1J!
1B"
1U"
1Z"
1W"
0V!
1l!
1:"
0I"
1M"
1j"
0>#
1%#
0w"
0]!
1s!
1;"
1+#
#320000
0!
0}
1M
#340000
1!
1}
0M
1O"
1<"
1d!
1C!
1@!
0)!
0'!
0$!
1"!
1P"
1="
1v!
1D!
1T"
0~
1&!
0>!
1E!
1F!
1a!
1R"
1#!
0S"
1V"
1{"
1w!
0G!
0^"
1a"
0W"
0s!
0;"
0N"
0f"
1x"
0+#
0j"
16!
#360000
0!
0}
1M
#380000
1!
1}
0M
17!
1'!
0&!
1(!
0D!
0E!
0F!
1M!
0a!
0v!
0="
0P"
0R"
0T"
0Z"
1w"
0w!
1G!
1L!
1i"
1Z!
0{"
1S"
0V"
0U"
1R!
0Z!
0l!
1o!
0:"
1I"
0M"
1j"
1>#
0%#
1'#
0x"
1s!
1;"
1N"
1+#
0L!
0M!
1^"
0a"
0i"
1|"
0;"
1V!
0o!
0'#
0R!
0j"
1f"
1n"
1]!
0s!
0+#
#400000
0!
0}
1M
#420000
1!
1}
0M
1)!
0'!
0!!
1&!
0(!
1>!
08!
1U"
1Z"
1B!
0J!
1f!
1/"
1-#
1W"
0V!
1W!
1l!
1:"
0I"
1M"
1j"
0n"
0>#
1%#
0w"
0]!
1s!
1;"
1+#
#440000
0!
0}
1M
#460000
1!
1}
0M
0)!
1'!
1$!
0"!
0&!
1(!
1*!
0>!
1D!
1E!
1_!
1v!
1="
1P"
1T"
0|"
0#!
0G!
0^"
0Z"
1m"
1{"
0S"
1V"
0W!
0s!
0;"
0N"
0f"
1x"
0+#
0j"
0l!
1r!
12"
0:"
0M"
0%#
1L!
0r!
02"
#480000
0!
0}
1M
#500000
1!
1}
0M
1y"
12!
0.!
1)!
0'!
1z"
1-!
1_"
0x"
1&!
0*!
19!
0D!
0E!
0_!
0v!
0="
0P"
0T"
1#!
18!
0U"
1Z"
0m"
0{"
1j"
1G!
0_"
1a"
1i"
1S"
0V"
0B!
1J!
0f!
0/"
0-#
0W"
0j"
0L!
1^"
0a"
0i"
1w"
1l!
1:"
1M"
1%#
1f"
1s!
1;"
1N"
1+#
1j"
#520000
0!
0}
1M
#540000
1!
1}
0M
1,#
1-"
1c!
0H!
1?!
1'!
1-#
1/"
1f!
0J!
1B!
1~
0#!
0&!
0(!
08!
09!
1>!
1!!
0Z"
1m"
0l!
1r!
12"
0:"
0M"
0%#
0N"
0+#
#560000
0!
0}
1M
#580000
1!
1}
0M
0O"
0C!
0)!
0'!
0$!
1"!
0B"
0-#
0~
1&!
06!
0>!
1E!
1F!
1u!
1v!
1="
1?"
1R"
1T"
1Y"
1l"
0z"
1#!
0m"
1{"
0G!
0^"
1a"
0S"
1V!
0r!
02"
1I"
0j"
1>#
0s!
0;"
0f"
#600000
0!
0}
1M
#620000
1!
1}
0M
07!
1'!
0&!
1(!
0E!
0F!
1M!
0u!
0v!
0="
0?"
0R"
0T"
0Y"
0l"
1z"
1G!
1L!
1Z"
1i"
1R!
0{"
1S"
1]!
1N"
1x"
0V!
0I"
0R!
1Z!
0>#
0L!
0M!
1^"
0a"
0i"
1|"
0]!
0N"
0x"
1l!
1:"
1M"
1%#
0Z!
1f"
1W!
1s!
1;"
1N"
1+#
1j"
#640000
0!
0}
1M
#660000
1!
1}
0M
1)!
0'!
0##
0J"
0!!
1&!
0(!
1>!
18!
0%#
0M"
0]
0a
0-
01
0Z"
1m"
1B"
1-#
0+#
0N"
0W!
0l!
1r!
12"
0:"
1["
#680000
0!
0}
1M
#700000
1!
1}
0M
0)!
1'!
1$!
0"!
1(#
1C"
0&!
1(!
1*!
0>!
1E!
1_!
1v!
1="
1T"
0|"
0#!
1*#
1E"
1e
1i
15
19
0G!
0^"
1_"
1U"
1Z"
1{"
1W"
0S"
1V"
0["
1+#
1N"
0s!
0;"
0N"
0f"
0+#
1\!
0r!
1'"
02"
1:"
0E"
1M"
16#
1"#
0*#
1L!
0w"
0\!
0'"
0:"
0M"
0"#
#720000
0!
0}
1M
#740000
1!
1}
0M
0y"
1k"
1.!
1)!
0'!
0z"
1l"
0-!
1/!
01!
1x"
1&!
0*!
19!
0E!
0_!
0v!
0="
0T"
1#!
08!
0U"
0Z"
0{"
0/!
1G!
0_"
1a"
1i"
1S"
0V"
0B"
0-#
0W"
0j"
06#
0L!
1^"
0a"
0i"
0x"
1w"
1r!
12"
1E"
1*#
1j"
1f"
1s!
1;"
1N"
1+#
#760000
0!
0}
1M
#780000
1!
1}
0M
1'!
1~
0#!
0&!
0(!
18!
09!
1>!
1!!
1B"
1-#
1Z"
1\!
0r!
1'"
02"
1:"
0E"
1M"
0j"
16#
1"#
0*#
1]!
0s!
1("
1x"
#800000
0!
0}
1M
#820000
1!
1}
0M
1O"
1)"
0d!
1^!
1C!
0@!
1;!
0)!
0'!
0$!
1"!
1P"
1*"
1D!
0~
1&!
16!
1E!
1F!
1u!
1="
1?"
1R"
1Y"
1#!
0S"
1V"
0Z"
1b!
1w!
0G!
0^"
1a"
0m"
1{"
1V!
0\!
0'"
0:"
1I"
0M"
06#
1>#
0"#
1Z"
0w"
0]!
0("
0;"
0N"
0f"
0x"
0+#
1x"
0V!
1l!
1:"
0I"
0>#
06!
16!
#840000
0!
0}
1M
#860000
1!
1}
0M
17!
1'!
0&!
1(!
0>!
0D!
0E!
0F!
1M!
0u!
0*"
0="
0?"
0P"
0R"
0Y"
0Z"
1m"
0{"
0b!
0w!
1G!
1L!
1i"
1Z!
1S"
0V"
1N!
0Z!
0l!
0:"
0L!
0M!
1^"
0a"
0i"
1|"
1w"
1s!
1;"
0x"
0s!
0;"
1r!
12"
1E"
1*#
0N!
1j"
1f"
1["
1s!
1;"
1N"
1+#
#880000
0!
0}
1M
#900000
1!
1}
0M
1)!
0'!
0!!
1&!
0(!
1>!
08!
1Z"
1=!
0B!
1J!
0f!
1z!
1\!
0r!
1'"
02"
1:"
0E"
1M"
0["
0j"
16#
1}"
1"#
0*#
1]!
0s!
1("
1x"
#920000
0!
0}
1M
#940000
1!
1}
0M
0)!
1'!
1$!
0"!
0&!
1(!
1*!
1D!
1E!
1_!
1*"
1="
1P"
0|"
0#!
1/!
0G!
0^"
1_"
0w"
1b!
1w!
0S"
1V"
0}"
0]!
0("
0;"
0N"
0f"
0+#
1j"
#960000
0!
0}
1M
#980000
1!
1}
0M
1y"
02!
10!
0.!
1)!
0'!
1z"
1-!
0_"
0x"
1&!
0*!
19!
0>!
0D!
0E!
0_!
0*"
0="
0P"
1#!
18!
0j"
1G!
1^"
0b!
0w!
1S"
0V"
0=!
1B!
0J!
1f!
0z!
1]!
1("
1;"
1N"
1f"
1x"
1+#
1w"
#1000000
0!
0}
1M
#1020000
1!
1}
0M
1x!
0c!
1H!
0?!
1:!
1'!
1z!
0f!
1J!
0B!
1=!
1~
0#!
0&!
0(!
08!
09!
1>!
1!!
0Z"
0m"
1{"
1V!
0\!
0'"
0:"
1I"
0M"
06#
1>#
0"#
1L!
0^"
1a"
1i"
0("
0;"
0+#
0V!
1o!
1'#
1j"
0f"
0]!
1s!
1+#
#1040000
0!
0}
1M
#1060000
1!
1}
0M
0<"
0)"
1d!
0^!
1@!
0)!
0'!
0$!
1"!
0/"
0z!
1f!
1v!
0J!
1B!
1T"
0~
1&!
1D!
1E!
1F!
1a!
1,"
1?"
1P"
1R"
1Y"
0l"
1#!
1W"
0{"
1U"
1w!
0G!
0L!
0i"
0S"
1Z"
0w"
0W"
0s!
0N"
0x"
0+#
1V!
0o!
0'#
0j"
0V!
1l!
1:"
0I"
0>#
1x"
0Z"
1w"
06!
0x"
16!
1V!
0l!
0:"
1I"
1>#
06!
#1080000
0!
0}
1M
